Assignment 2: COVID-19 Data Visualization – BCB520_Data_Visualization
…
# Print summary to verify strain distribution
summary_stats <- covid_ts %>%
  group_by(state) %>%
  summarise(
    total_cases = sum(total_infections, na.rm = TRUE),
    total_original = sum(Original, na.rm = TRUE),
    total_alpha = sum(Alpha, na.rm = TRUE),
    total_delta = sum(Delta, na.rm = TRUE),
    total_omicron = sum(Omicron, na.rm = TRUE)
  )
print(summary_stats)

# A tibble: 50 × 6
   state       total_cases total_original total_alpha total_delta total_omicron
   <chr>             <int>          <int>       <int>       <int>         <int>
 1 Alabama          109539          65682       25021       14034          4802
 2 Alaska           110052          66937       24660       13887          4568
 3 Arizona          110436          67032       24881       13792          4731
 4 Arkansas         109044          65642       24836       13768          4798
 5 California       109176          66624       24302       13607          4643
 6 Colorado         109372          66303       24677       13568          4824
 7 Connecticut      109645          66791       24481       13669          4704
 8 Delaware         109554          65733       25290       13836          4695
 9 Florida          109953          66000       25072       13843          5038
10 Georgia          109294          65753       24948       13955          4638
# ℹ 40 more rows
…
